Evaluates Present Values and Cost-Effectiveness With Dynamic Pricing And Uptake • dynacem
…
For this example, we are just interested in the payoff for drug acquisition costs of the new intervention.

# Obtain a vector of payoffs
payoffs <- democe |>
    dplyr::filter(int=="new") |>
    dplyr::select(model_time, int, cost_daq_new, cost_daq_new_rup)
payoffs
#> # A tibble: 1,044 × 4
#>    model_time int   cost_daq_new cost_daq_new_rup
#>         <int> <chr>        <dbl>            <dbl>
#>  1          1 new          1493.            1493.
#>  2          2 new          1477.            1478.
#>  3          3 new          1461.            1463.
#>  4          4 new          1446.            1448.
#>  5          5 new          1431.            1434.
#>  6          6 new          1416.            1420.
#>  7          7 new          1401.            1406.
#>  8          8 new          1386.            1392.
#>  9          9 new          1372.            1378.
#> 10         10 new          1357.            1364.
#> # ℹ 1,034 more rows
…
pv1 <- dynpv(
    uptakes = rep(1, Nt),
    payoffs = payoffs$cost_daq_new_rup,
    prices = prices[1:Nt],
    disc = disc_pt
    )
pv1$results
#> $ncoh
#> [1] 1044
#> 
#> $uptake
#> [1] 1044
#> 
#> $calc
#> # A tibble: 545,490 × 9
#>        j     k     l     t    uj    pk     R     v    pv
#>    <int> <int> <dbl> <dbl> <dbl> <dbl> <dbl> <dbl> <dbl>
#>  1     1     1     0     1     1 1493.  1.00 1     1494.
#>  2     1     2     0     2     1 1478.  1.00 0.999 1478.
#>  3     1     3     0     3     1 1463.  1.00 0.997 1463.
#>  4     1     4     0     4     1 1448.  1.00 0.996 1447.
#>  5     1     5     0     5     1 1434.  1.00 0.994 1432.
#>  6     1     6     0     6     1 1420.  1.01 0.993 1417.
#>  7     1     7     0     7     1 1406.  1.01 0.991 1402.
#>  8     1     8     0     8     1 1392.  1.01 0.990 1388.
#>  9     1     9     0     9     1 1378.  1.01 0.988 1373.
#> 10     1    10     0    10     1 1364.  1.01 0.987 1359.
#> # ℹ 545,480 more rows
#> 
#> $cohpv
#> # A tibble: 1,044 × 3
#>        j tzero     spv
#>    <int> <dbl>   <dbl>
#>  1     1     0 128471.
#>  2     2     0 128253.
#>  3     3     0 128034.
#>  4     4     0 127813.
#>  5     5     0 127592.
#>  6     6     0 127368.
#>  7     7     0 127143.
#>  8     8     0 126917.
#>  9     9     0 126689.
#> 10    10     0 126460.
#> # ℹ 1,034 more rows
…
