Calculate present value for a payoff in a single cohort with dynamic pricing across multiple timepoints — futurepv • dynacem
…
#> [2081] 7.996154 8.004150 8.012154 8.020167 8.028187 8.036215 8.044251 8.052295
#> 
#> $inputs$discrate
#> [1] 0.001566654
#> 
#> 
#> $results
#> $results$ncoh
#> [1] 1
#> 
#> $results$uptake
#> [1] 1
#> 
#> $results$calc
#> # A tibble: 10,440 × 9
#>        j     k     l     t    uj    pk     R     v    pv
#>    <int> <int> <dbl> <dbl> <dbl> <dbl> <dbl> <dbl> <dbl>
#>  1     1     1     0     1     1  355.  1        1  355.
#>  2     1     1    52     1     1  355.  1.05     1  374.
#>  3     1     1   104     1     1  355.  1.11     1  394.
#>  4     1     1   156     1     1  355.  1.17     1  415.
#>  5     1     1   208     1     1  355.  1.23     1  437.
#>  6     1     1   260     1     1  355.  1.30     1  460.
#>  7     1     1   312     1     1  355.  1.37     1  485.
#>  8     1     1   364     1     1  355.  1.44     1  511.
#>  9     1     1   416     1     1  355.  1.52     1  538.
#> 10     1     1   468     1     1  355.  1.60     1  566.
#> # ℹ 10,430 more rows
…
