Evaluates Cost-Effectiveness Models With Dynamic Pricing And Uptake • dynacem
…
# Obtain a vector of payoffs
payoffs <- democe |>
    dplyr::filter(int=="new") |>
    dplyr::mutate(cost_oth = cost_total - cost_daq_new)
payoffs
#> # A tibble: 1,044 × 10
#>    model_time cost_daq_new cost_total   qaly int      vt cost_daq_new_rup
#>         <int>        <dbl>      <dbl>  <dbl> <chr> <dbl>            <dbl>
#>  1          1        1493.      1847. 0.0153 new   1                1493.
#>  2          2        1477.      1831. 0.0153 new   0.999            1478.
#>  3          3        1461.      1815. 0.0152 new   0.999            1463.
#>  4          4        1446.      1799. 0.0152 new   0.998            1448.
#>  5          5        1431.      1783. 0.0151 new   0.998            1434.
#>  6          6        1416.      1766. 0.0150 new   0.997            1420.
#>  7          7        1401.      1750. 0.0149 new   0.997            1406.
#>  8          8        1386.      1733. 0.0148 new   0.996            1392.
#>  9          9        1372.      1717. 0.0147 new   0.995            1378.
#> 10         10        1357.      1700. 0.0146 new   0.995            1364.
#> # ℹ 1,034 more rows
#> # ℹ 3 more variables: cost_total_rup <dbl>, qaly_rup <dbl>, cost_oth <dbl>
…
pv1 <- dynpv(
    uptakes = rep(1, Nt),
    payoffs = payoffs$cost_oth,
    prices = prices[1:Nt],
    disc = disc_pt
    )
pv1$results
#> $ncoh
#> [1] 1044
#> 
#> $uptake
#> [1] 1044
#> 
#> $calc
#> # A tibble: 545,490 × 9
#>        j     k     l     t    uj    pk     R     v    pv
#>    <int> <int> <dbl> <dbl> <dbl> <dbl> <dbl> <dbl> <dbl>
#>  1     1     1     0     1     1  355.  1.00 1      355.
#>  2     1     2     0     2     1  354.  1.00 0.999  354.
#>  3     1     3     0     3     1  354.  1.00 0.997  354.
#>  4     1     4     0     4     1  353.  1.00 0.996  353.
#>  5     1     5     0     5     1  352.  1.00 0.994  351.
#>  6     1     6     0     6     1  351.  1.01 0.993  350.
#>  7     1     7     0     7     1  349.  1.01 0.991  348.
#>  8     1     8     0     8     1  347.  1.01 0.990  346.
#>  9     1     9     0     9     1  345.  1.01 0.988  344.
#> 10     1    10     0    10     1  343.  1.01 0.987  342.
#> # ℹ 545,480 more rows
#> 
#> $cohpv
#> # A tibble: 1,044 × 3
#>        j tzero    spv
#>    <int> <dbl>  <dbl>
#>  1     1     0 38831.
#>  2     2     0 38760.
#>  3     3     0 38689.
#>  4     4     0 38617.
#>  5     5     0 38545.
#>  6     6     0 38473.
#>  7     7     0 38401.
#>  8     8     0 38328.
#>  9     9     0 38255.
#> 10    10     0 38182.
#> # ℹ 1,034 more rows
…
pv2 <- futurepv(
  l = (1:10)*52 - 51,
  payoffs = payoffs$cost_oth,
  prices = prices,
  disc = disc_pt
)
pv2$results
#> $ncoh
#> [1] 1
#> 
#> $uptake
#> [1] 1
#> 
#> $calc
#> # A tibble: 10,440 × 9
#>        j     k     l     t    uj    pk     R     v    pv
#>    <int> <int> <dbl> <dbl> <dbl> <dbl> <dbl> <dbl> <dbl>
#>  1     1     1     0     1     1  355. 1.00      1  355.
#>  2     1     1    52     1     1  355. 1.05      1  373.
#>  3     1     1   104     1     1  355. 1.10      1  392.
#>  4     1     1   156     1     1  355. 0.579     1  206.
#>  5     1     1   208     1     1  355. 0.602     1  214.
#>  6     1     1   260     1     1  355. 0.627     1  222.
#>  7     1     1   312     1     1  355. 0.652     1  231.
#>  8     1     1   364     1     1  355. 0.678     1  240.
#>  9     1     1   416     1     1  355. 0.705     1  250.
#> 10     1     1   468     1     1  355. 0.733     1  260.
#> # ℹ 10,430 more rows
…
