Calculate present value for a payoff with dynamic pricing and dynamic uptake — dynpv • dynacem
…
#> 
#> $inputs$discrate
#> [1] 0.001538462
#> 
#> 
#> $results
#> $results$ncoh
#> [1] 1044
#> 
#> $results$uptake
#> [1] 1044
#> 
#> $results$calc
#> # A tibble: 545,490 × 9
#>        j     k     l     t    uj    pk     R     v    pv
#>    <int> <int> <dbl> <dbl> <dbl> <dbl> <dbl> <dbl> <dbl>
#>  1     1     1     0     1     1  355.  1.00 1      355.
#>  2     1     2     0     2     1  354.  1.00 0.998  354.
#>  3     1     3     0     3     1  354.  1.00 0.997  354.
#>  4     1     4     0     4     1  353.  1.00 0.995  353.
#>  5     1     5     0     5     1  352.  1.00 0.994  351.
#>  6     1     6     0     6     1  351.  1.01 0.992  350.
#>  7     1     7     0     7     1  349.  1.01 0.991  348.
#>  8     1     8     0     8     1  347.  1.01 0.989  346.
#>  9     1     9     0     9     1  345.  1.01 0.988  344.
#> 10     1    10     0    10     1  343.  1.01 0.986  342.
#> # ℹ 545,480 more rows
#> 
#> $results$cohpv
#> # A tibble: 1,044 × 3
#>        j tzero    spv
#>    <int> <dbl>  <dbl>
#>  1     1     0 46291.
#>  2     2     0 46257.
#>  3     3     0 46224.
#>  4     4     0 46191.
#>  5     5     0 46157.
#>  6     6     0 46124.
#>  7     7     0 46090.
#>  8     8     0 46057.
#>  9     9     0 46024.
#> 10    10     0 45990.
#> # ℹ 1,034 more rows
…
