Calculate present value for a payoff in a single cohort with dynamic pricing across multiple timepoints — futurepv • dynacem
…
#> [17] 1.016121 1.017137 1.018154 1.019172
#> 
#> $inputs$discrate
#> [1] 0.001566654
#> 
#> 
#> $results
#> $results$ncoh
#> [1] 1
#> 
#> $results$uptake
#> [1] 1
#> 
#> $results$calc
#> # A tibble: 100 × 9
#>        j     k     l     t    uj    pk     R     v    pv
#>    <int> <int> <dbl> <dbl> <dbl> <dbl> <dbl> <dbl> <dbl>
#>  1     1     1     0     1     1  355.     1     1  355.
#>  2     1     1    52     1     1  355.    NA     1   NA 
#>  3     1     1   104     1     1  355.    NA     1   NA 
#>  4     1     1   156     1     1  355.    NA     1   NA 
#>  5     1     1   208     1     1  355.    NA     1   NA 
#>  6     1     1   260     1     1  355.    NA     1   NA 
#>  7     1     1   312     1     1  355.    NA     1   NA 
#>  8     1     1   364     1     1  355.    NA     1   NA 
#>  9     1     1   416     1     1  355.    NA     1   NA 
#> 10     1     1   468     1     1  355.    NA     1   NA 
#> # ℹ 90 more rows
…
